Shipping Data
…
Installing the packages

library(ggplot2)
library(rmarkdown)
library(knitr)
library(dplyr)

library(readr)
shippingData_Kopya <- read_delim("C:/Users/Selimhan/Desktop/shippingData - Kopya.csv", 
    delim = ";", escape_double = FALSE, locale = locale(decimal_mark = ",", 
        grouping_mark = "."), trim_ws = TRUE)
shippingData_Kopya

## # A tibble: 319 x 4
##    Center   Days Status     Distance
##    <chr>   <dbl> <chr>         <dbl>
##  1 Eastern  4.28 On time         255
##  2 Eastern  3.35 On time         196
##  3 Eastern NA    Back order      299
##  4 Eastern  4.3  On time         205
##  5 Eastern  6.25 Late            250
##  6 Eastern  5.29 On time          93
##  7 Eastern  4.05 On time         189
##  8 Eastern  5.32 On time         335
##  9 Eastern  5.07 On time         211
## 10 Eastern  4.29 On time         254
## # ... with 309 more rows
…
